Working with GeoJSON data • smarterapi
…
Convert from MULTIPOINTS to POINT

The get_smarter_geojson() methods returns a sf() MULTIPOINTS objects since multiple locations could be collected for each animal, for example for transhumant samples. However, for simplicity, we can focus our analyses using only one GPS coordinate, transforming this MULTIPOINTS object into a POINT object:

hapmap_data <- hapmap_data %>% sf::st_cast("POINT", do_split = FALSE)
hapmap_data
#> Simple feature collection with 92 features and 11 fields
#> Geometry type: POINT
#> Dimension:     XY
#> Bounding box:  xmin: 9.016667 ymin: 37 xmax: 18.16667 ymax: 40.81667
#> Geodetic CRS:  WGS 84
#> # A tibble: 92 × 12
#>    breed    breed_code chip_name country dataset metadata original_id smarter_id
#>    <chr>    <chr>      <chr>     <chr>   <chr>   <chr>    <chr>       <chr>     
#>  1 Altamur… ALT        Illumina… Italy   "{ \"$… "{ \"lo… ALT1        ITOA-ALT-…
#>  2 Altamur… ALT        Illumina… Italy   "{ \"$… "{ \"lo… ALT23       ITOA-ALT-…
#>  3 Altamur… ALT        Illumina… Italy   "{ \"$… "{ \"lo… ALT10       ITOA-ALT-…
#>  4 Altamur… ALT        Illumina… Italy   "{ \"$… "{ \"lo… ALT20       ITOA-ALT-…
#>  5 Altamur… ALT        Illumina… Italy   "{ \"$… "{ \"lo… ALT21       ITOA-ALT-…
#>  6 Altamur… ALT        Illumina… Italy   "{ \"$… "{ \"lo… ALT22       ITOA-ALT-…
#>  7 Altamur… ALT        Illumina… Italy   "{ \"$… "{ \"lo… ALT15       ITOA-ALT-…
#>  8 Altamur… ALT        Illumina… Italy   "{ \"$… "{ \"lo… ALT8        ITOA-ALT-…
#>  9 Altamur… ALT        Illumina… Italy   "{ \"$… "{ \"lo… ALT16       ITOA-ALT-…
#> 10 Altamur… ALT        Illumina… Italy   "{ \"$… "{ \"lo… ALT24       ITOA-ALT-…
#> # … with 82 more rows, and 4 more variables: species <chr>, type <chr>,
#> #   sex <int>, geometry <POINT [°]>
…
