…
``` r
hapmap_data <- hapmap_data %>% sf::st_cast("POINT", do_split = FALSE)
hapmap_data
#> Simple feature collection with 92 features and 11 fields
#> Geometry type: POINT
#> Dimension:     XY
#> Bounding box:  xmin: 9.016667 ymin: 37 xmax: 18.16667 ymax: 40.81667
#> Geodetic CRS:  WGS 84
#> # A tibble: 92 × 12
#>    breed      breed_code chip_name    country dataset metadata original_id   sex
#>    <chr>      <chr>      <chr>        <chr>   <chr>   <chr>    <chr>       <int>
#>  1 Altamurana ALT        IlluminaOvi… Italy   "{ \"$… "{ \"lo… ALT1           NA
#>  2 Altamurana ALT        IlluminaOvi… Italy   "{ \"$… "{ \"lo… ALT23          NA
#>  3 Altamurana ALT        IlluminaOvi… Italy   "{ \"$… "{ \"lo… ALT10          NA
#>  4 Altamurana ALT        IlluminaOvi… Italy   "{ \"$… "{ \"lo… ALT20          NA
#>  5 Altamurana ALT        IlluminaOvi… Italy   "{ \"$… "{ \"lo… ALT21          NA
#>  6 Altamurana ALT        IlluminaOvi… Italy   "{ \"$… "{ \"lo… ALT22          NA
#>  7 Altamurana ALT        IlluminaOvi… Italy   "{ \"$… "{ \"lo… ALT15          NA
#>  8 Altamurana ALT        IlluminaOvi… Italy   "{ \"$… "{ \"lo… ALT8           NA
#>  9 Altamurana ALT        IlluminaOvi… Italy   "{ \"$… "{ \"lo… ALT16          NA
#> 10 Altamurana ALT        IlluminaOvi… Italy   "{ \"$… "{ \"lo… ALT24          NA
#> # ℹ 82 more rows
#> # ℹ 4 more variables: smarter_id <chr>, species <chr>, type <chr>,
#> #   geometry <POINT [°]>
```
…
